<svg xmlns="http://www.w3.org/2000/svg" xmlns:xlink="http://www.w3.org/1999/xlink" width="40.546" height="52.473" viewBox="0 0 40.546 52.473">
  <defs>
    <linearGradient id="linear-gradient" x1="0.5" x2="0.5" y2="1" gradientUnits="objectBoundingBox">
      <stop offset="0" stop-color="#1553b5"/>
      <stop offset="1" stop-color="#1453b5"/>
    </linearGradient>
    <linearGradient id="linear-gradient-2" x1="0.5" x2="0.5" y2="1" gradientUnits="objectBoundingBox">
      <stop offset="0" stop-color="#70db58"/>
      <stop offset="1" stop-color="#70db58"/>
    </linearGradient>
  </defs>
  <g id="Group_2466" data-name="Group 2466" transform="translate(-286.286 -351.959)">
    <path id="Path_5117" data-name="Path 5117" d="M43.5,0H7.727A2.385,2.385,0,0,0,5.342,2.386v47.7a2.386,2.386,0,0,0,2.385,2.386H43.5a2.385,2.385,0,0,0,2.385-2.386V2.386A2.385,2.385,0,0,0,43.5,0ZM41.118,4.769v7.155H10.111V4.769ZM10.111,47.7V16.7H41.118V47.7H10.111Z" transform="translate(280.944 351.959)" fill="url(#linear-gradient)"/>
    <path id="Path_5118" data-name="Path 5118" d="M18.587,16.844h-5.51a1.327,1.327,0,0,0-1.327,1.327v5.513a1.327,1.327,0,0,0,1.327,1.327h5.51a1.327,1.327,0,0,0,1.327-1.327V18.171A1.323,1.323,0,0,0,18.587,16.844Z" transform="translate(280.211 353.082)" fill="url(#linear-gradient-2)"/>
    <path id="Path_5119" data-name="Path 5119" d="M27.05,16.844H21.542a1.327,1.327,0,0,0-1.327,1.327v5.513a1.327,1.327,0,0,0,1.327,1.327H27.05a1.327,1.327,0,0,0,1.327-1.327V18.171A1.325,1.325,0,0,0,27.05,16.844Z" transform="translate(282.262 353.082)" fill="url(#linear-gradient-2)"/>
    <path id="Path_5120" data-name="Path 5120" d="M35.515,16.844h-5.51a1.326,1.326,0,0,0-1.326,1.327v5.513a1.326,1.326,0,0,0,1.326,1.327h5.51a1.327,1.327,0,0,0,1.327-1.327V18.171A1.326,1.326,0,0,0,35.515,16.844Z" transform="translate(284.314 353.082)" fill="url(#linear-gradient-2)"/>
    <path id="Path_5121" data-name="Path 5121" d="M18.587,25.555h-5.51a1.326,1.326,0,0,0-1.327,1.326v5.513a1.326,1.326,0,0,0,1.327,1.326h5.51a1.326,1.326,0,0,0,1.327-1.326V26.881A1.322,1.322,0,0,0,18.587,25.555Z" transform="translate(280.211 355.193)" fill="url(#linear-gradient-2)"/>
    <path id="Path_5122" data-name="Path 5122" d="M27.05,25.555H21.542a1.326,1.326,0,0,0-1.327,1.326v5.513a1.326,1.326,0,0,0,1.327,1.326H27.05a1.326,1.326,0,0,0,1.327-1.326V26.881A1.324,1.324,0,0,0,27.05,25.555Z" transform="translate(282.262 355.193)" fill="url(#linear-gradient-2)"/>
    <path id="Path_5123" data-name="Path 5123" d="M18.587,34.266h-5.51A1.326,1.326,0,0,0,11.75,35.59V41.1a1.326,1.326,0,0,0,1.327,1.327h5.51A1.327,1.327,0,0,0,19.913,41.1V35.59A1.322,1.322,0,0,0,18.587,34.266Z" transform="translate(280.211 357.304)" fill="url(#linear-gradient-2)"/>
    <path id="Path_5124" data-name="Path 5124" d="M27.05,34.266H21.542a1.326,1.326,0,0,0-1.327,1.324V41.1a1.325,1.325,0,0,0,1.327,1.327H27.05A1.327,1.327,0,0,0,28.377,41.1V35.59A1.324,1.324,0,0,0,27.05,34.266Z" transform="translate(282.262 357.304)" fill="url(#linear-gradient-2)"/>
    <path id="Path_5125" data-name="Path 5125" d="M35.515,25.555h-5.51a1.325,1.325,0,0,0-1.326,1.326V43.215a1.325,1.325,0,0,0,1.326,1.327h5.51a1.327,1.327,0,0,0,1.327-1.327V26.881A1.325,1.325,0,0,0,35.515,25.555Z" transform="translate(284.314 355.193)" fill="url(#linear-gradient-2)"/>
  </g>
</svg>
